[{
    "name" :"Revathi Ramasamy",
    "designation" : "Senior Software Engineer II",
    "skill" :"react,java,c,c++,javascript",
    "salary" : "10000000",
    "employeeCode":"IN01"
},
{
    "name" :"Marsh Mello",
    "skill" :"react,java,python,c++,javascript",
    "designation" : "Senior Software Engineer",
    "salary" : "10000000",
    "employeeCode":"IN02"
},
{
    "name" :"Suresh Kumar",
    "skill" :"react,java,python,javascript",
    "designation" : "Manager",
    "salary" : "10000000",
    "employeeCode":"IN03"
},
{
    "name" :"Abhijeet Gopinath",
    "skill" :"react,java,python,javascript",
    "designation" : "Software Engineer",
    "salary" : "1000000",
    "employeeCode":"IN04"
},
{
    "name" :"Mark geo",
    "skill" :"python,javascript",
    "designation" : "Software Engineer",
    "salary" : "2500000",
    "employeeCode":"IN05"
},
{
    "name" :"Mark geo",
    "skill" :"python,javascript,java",
    "designation" : "Software Engineer",
    "salary" : "3500000",
    "employeeCode":"IN06"
}
]